{
  "schemaVersion": 1,
  "id": "techmod",
  "version": "0.0.1",

  "name": "TechMod",
  "description": "This is an example description! Tell everyone what your mod is about!",
  "authors": [
    "Me!"
  ],
  "contact": {
    "homepage": "https://fabricmc.net/",
    "sources": "https://github.com/FabricMC/fabric-example-mod"
  },

  "license": "CC0-1.0",
  "icon": "assets/techmod/icon.png",

  "environment": "*",
  "entrypoints": {
    "main": [
      "com.tech.techmod.TechMod"
    ]
  },
  "mixins": [
    "techmod.mixins.json"
  ],

  "requires": {
    "fabricloader": ">=0.4.0",
    "fabric": "*"
  },
  "suggests": {
    "flamingo": "*"
  }
}
